…
### Pre-check function outputs

``` r
print(diag_results$pre_data)
```

    ## # A tibble: 1,000 × 7
    ##    date       city    treat  post rel_time spend sales
    ##    <date>     <fct>   <fct> <int>    <int> <dbl> <dbl>
    ##  1 2024-01-01 City_1  1         0     -100  20.6  97.0
    ##  2 2024-01-01 City_2  1         0     -100  25.3  98.5
    ##  3 2024-01-01 City_3  1         0     -100  24.5  95.3
    ##  4 2024-01-01 City_4  1         0     -100  20.5  91.9
    ##  5 2024-01-01 City_5  1         0     -100  23.7 100. 
    ##  6 2024-01-01 City_6  0         0     -100  21.0  94.3
    ##  7 2024-01-01 City_7  0         0     -100  18.3  82.5
    ##  8 2024-01-01 City_8  0         0     -100  19.5  89.3
    ##  9 2024-01-01 City_9  0         0     -100  20.1  98.5
    ## 10 2024-01-01 City_10 0         0     -100  22.1  88.5
    ## # ℹ 990 more rows
…
